Biostat 203B Homework 2
…
We observe that there are 53,150 unique patients in the ICU stays data. Patients may appear more than once, with the patients having the most ICU stays appearing over 30 times in the data. The distribution of ICU stay counts is highly positively skewed, with most patients only having one or a couple admissions.

2.1.3 4.

# Selecting only first ICU stay
icustays_tble <- icustays_tble %>% 
  group_by(subject_id) %>% 
  arrange(intime, .by_group=TRUE) %>% 
  slice(1) %>% 
  print(width = Inf)

# A tibble: 53,150 × 8
# Groups:   subject_id [53,150]
   subject_id  hadm_id  stay_id first_careunit                                  
        <dbl>    <dbl>    <dbl> <chr>                                           
 1   10000032 29079034 39553978 Medical Intensive Care Unit (MICU)              
 2   10000980 26913865 39765666 Medical Intensive Care Unit (MICU)              
 3   10001217 24597018 37067082 Surgical Intensive Care Unit (SICU)             
 4   10001725 25563031 31205490 Medical/Surgical Intensive Care Unit (MICU/SICU)
 5   10001884 26184834 37510196 Medical Intensive Care Unit (MICU)              
 6   10002013 23581541 39060235 Cardiac Vascular Intensive Care Unit (CVICU)    
 7   10002155 23822395 33685454 Coronary Care Unit (CCU)                        
 8   10002223 22494570 39638202 Trauma SICU (TSICU)                             
 9   10002348 22725460 32610785 Neuro Intermediate                              
10   10002428 28662225 33987268 Medical Intensive Care Unit (MICU)              
   last_careunit                                    intime             
   <chr>                                            <dttm>             
 1 Medical Intensive Care Unit (MICU)               2180-07-23 14:00:00
 2 Medical Intensive Care Unit (MICU)               2189-06-27 08:42:00
 3 Surgical Intensive Care Unit (SICU)              2157-11-20 19:18:02
 4 Medical/Surgical Intensive Care Unit (MICU/SICU) 2110-04-11 15:52:22
 5 Medical Intensive Care Unit (MICU)               2131-01-11 04:20:05
 6 Cardiac Vascular Intensive Care Unit (CVICU)     2160-05-18 10:00:53
 7 Coronary Care Unit (CCU)                         2129-08-04 12:45:00
 8 Trauma SICU (TSICU)                              2158-01-15 08:01:49
 9 Neuro Intermediate                               2112-11-30 23:24:00
10 Medical Intensive Care Unit (MICU)               2156-04-12 16:24:18
   outtime               los
   <dttm>              <dbl>
 1 2180-07-23 23:50:47 0.410
 2 2189-06-27 20:38:27 0.498
 3 2157-11-21 22:08:00 1.12 
 4 2110-04-12 23:59:56 1.34 
 5 2131-01-20 08:27:30 9.17 
 6 2160-05-19 17:33:33 1.31 
 7 2129-08-10 17:02:38 6.18 
 8 2158-01-16 15:19:24 1.30 
 9 2112-12-10 18:25:13 9.79 
10 2156-04-17 15:57:08 4.98 
# … with 53,140 more rows
…
admission minute (anything unusual?)

length of hospital stay (anything unusual?)

3.1 ANSWER

3.1.1 1.

admissions_filename <- str_c(mimic_path, "/core/admissions.csv.gz")

admissions_tble <- read_csv(admissions_filename)
admissions_tble

# A tibble: 523,740 × 15
   subject…¹ hadm_id admittime           dischtime           deathtime
       <dbl>   <dbl> <dttm>              <dttm>              <dttm>   
 1  14679932  2.10e7 2139-09-26 14:16:00 2139-09-28 11:30:00 NA       
 2  15585972  2.49e7 2123-10-07 23:56:00 2123-10-12 11:22:00 NA       
 3  11989120  2.20e7 2147-01-14 09:00:00 2147-01-17 14:25:00 NA       
 4  17817079  2.47e7 2165-12-27 17:33:00 2165-12-31 21:18:00 NA       
 5  15078341  2.33e7 2122-08-28 08:48:00 2122-08-30 12:32:00 NA       
 6  19124609  2.05e7 2169-03-14 12:44:00 2169-03-20 19:15:00 NA       
 7  17301855  2.97e7 2140-06-06 14:23:00 2140-06-08 14:25:00 NA       
 8  17991012  2.43e7 2181-07-10 20:28:00 2181-07-12 15:49:00 NA       
 9  16865435  2.32e7 2185-07-19 02:12:00 2185-07-21 11:50:00 NA       
10  13693648  2.16e7 2111-01-30 23:43:00 2111-02-02 13:03:00 NA       
# … with 523,730 more rows, 10 more variables: admission_type <chr>,
#   admission_location <chr>, discharge_location <chr>, insurance <chr>,
#   language <chr>, marital_status <chr>, ethnicity <chr>, edregtime <dttm>,
#   edouttime <dttm>, hospital_expire_flag <dbl>, and abbreviated variable name
#   ¹​subject_id

3.1.2 2.

Let’s ensure we are considering patients in the icustays_tble.

admissions_tble <- semi_join(admissions_tble, icustays_tble,
                             by = c("subject_id", "hadm_id")) %>% 
  print(width = Inf)

# A tibble: 53,150 × 15
   subject_id  hadm_id admittime           dischtime          
        <dbl>    <dbl> <dttm>              <dttm>             
 1   10222255 28200985 2120-11-20 20:25:00 2120-11-22 13:00:00
 2   14485852 28712010 2113-10-31 00:23:00 2113-11-04 16:50:00
 3   18709254 23758948 2195-10-12 01:31:00 2195-10-12 13:51:00
 4   16837807 23526268 2151-03-19 06:09:00 2151-03-19 07:20:00
 5   17642680 27734285 2116-05-29 12:48:00 2116-05-30 12:31:00
 6   18230965 21251728 2142-03-12 20:00:00 2142-03-17 15:26:00
 7   17374121 27667114 2115-07-22 07:15:00 2115-07-24 17:50:00
 8   13346506 28533404 2181-11-19 14:32:00 2181-11-22 18:47:00
 9   18030332 24679656 2152-07-22 21:28:00 2152-07-27 16:49:00
10   14328744 29576470 2126-08-20 09:26:00 2126-08-21 11:36:00
   deathtime           admission_type     admission_location    
   <dttm>              <chr>              <chr>                 
 1 NA                  EU OBSERVATION     TRANSFER FROM HOSPITAL
 2 NA                  EW EMER.           EMERGENCY ROOM        
 3 NA                  EU OBSERVATION     EMERGENCY ROOM        
 4 2151-03-19 07:20:00 EU OBSERVATION     EMERGENCY ROOM        
 5 NA                  EU OBSERVATION     WALK-IN/SELF REFERRAL 
 6 NA                  URGENT             PHYSICIAN REFERRAL    
 7 NA                  DIRECT OBSERVATION PHYSICIAN REFERRAL    
 8 NA                  EU OBSERVATION     EMERGENCY ROOM        
 9 NA                  URGENT             TRANSFER FROM HOSPITAL
10 NA                  EU OBSERVATION     EMERGENCY ROOM        
   discharge_location insurance language marital_status ethnicity
   <chr>              <chr>     <chr>    <chr>          <chr>    
 1 <NA>               Other     ENGLISH  MARRIED        WHITE    
 2 <NA>               Other     ENGLISH  SINGLE         WHITE    
 3 <NA>               Medicaid  ENGLISH  WIDOWED        ASIAN    
 4 <NA>               Medicare  ENGLISH  SINGLE         WHITE    
 5 <NA>               Other     ENGLISH  SINGLE         WHITE    
 6 HOME               Other     ENGLISH  MARRIED        WHITE    
 7 <NA>               Other     ENGLISH  MARRIED        WHITE    
 8 <NA>               Other     ENGLISH  MARRIED        WHITE    
 9 HOME               Other     ENGLISH  MARRIED        UNKNOWN  
10 <NA>               Other     ENGLISH  MARRIED        WHITE    
   edregtime           edouttime           hospital_expire_flag
   <dttm>              <dttm>                             <dbl>
 1 2120-11-20 18:07:00 2120-11-21 20:25:00                    0
 2 2113-10-30 19:48:00 2113-10-31 05:10:00                    0
 3 2195-10-11 18:40:00 2195-10-12 02:47:00                    0
 4 2151-03-19 02:55:00 2151-03-19 06:59:00                    1
 5 2116-05-29 10:05:00 2116-05-30 01:17:00                    0
 6 NA                  NA                                     0
 7 NA                  NA                                     0
 8 2181-11-19 10:51:00 2181-11-19 15:12:00                    0
 9 NA                  NA                                     0
10 2126-08-19 23:01:00 2126-08-20 10:14:00                    0
# … with 53,140 more rows
…
Summarize variables gender and anchor_age, and explain any patterns you see.

4.1 ANSWER

4.1.1 1.

patients_filename <- str_c(mimic_path, "/core/patients.csv.gz")
patients_tble <- read_csv(patients_filename)

patients_tble <- semi_join(patients_tble, icustays_tble,
                           on = "subject_id")
patients_tble

# A tibble: 53,150 × 6
   subject_id gender anchor_age anchor_year anchor_year_group dod       
        <dbl> <chr>       <dbl>       <dbl> <chr>             <date>    
 1   10018928 F              31        2125 2008 - 2010       NA        
 2   10076543 F              78        2187 2008 - 2010       NA        
 3   10098428 F              85        2119 2008 - 2010       NA        
 4   10127185 M              60        2141 2008 - 2010       NA        
 5   10148710 M              67        2137 2008 - 2010       NA        
 6   10156486 F              75        2124 2017 - 2019       NA        
 7   10159585 M              59        2146 2008 - 2010       2154-04-16
 8   10171525 F              27        2115 2014 - 2016       NA        
 9   10196360 M              57        2118 2011 - 2013       NA        
10   10227823 M              45        2156 2014 - 2016       NA        
# … with 53,140 more rows
…
Warning: Using an external vector in selections was deprecated in tidyselect 1.1.0.
ℹ Please use `all_of()` or `any_of()` instead.
  # Was:
  data %>% select(labevents_cols_to_keep)

  # Now:
  data %>% select(all_of(labevents_cols_to_keep))

See <https://tidyselect.r-lib.org/reference/faq-external-vector.html>.

# A tibble: 30,198,826 × 4
   subject_id itemid charttime           valuenum
        <dbl>  <dbl> <dttm>                 <dbl>
 1   10000048  50882 2126-11-22 20:45:00     26  
 2   10000048  50902 2126-11-22 20:45:00    106  
 3   10000048  50912 2126-11-22 20:45:00      0.7
 4   10000048  50931 2126-11-22 20:45:00     95  
 5   10000048  50971 2126-11-22 20:45:00      4  
 6   10000048  50983 2126-11-22 20:45:00    141  
 7   10000048  51221 2126-11-22 20:45:00     38.2
 8   10000048  51301 2126-11-22 20:45:00      9.6
 9   10000473  50882 2138-03-15 22:37:00     25  
10   10000473  50893 2138-03-15 22:37:00      8.6
# … with 30,198,816 more rows

   user  system elapsed 
 23.773  25.236   9.473 

# Also import dict for renaming id columns
labitems_dict <- read_csv(str_c(mimic_path, "/hosp/d_labitems.csv.gz")) %>%
  select(itemid, label) %>%
  print(width = Inf)

# A tibble: 1,630 × 2
   itemid label                    
    <dbl> <chr>                    
 1  51905 <NA>                     
 2  51532 11-Deoxycorticosterone   
 3  51957 17-Hydroxycorticosteroids
 4  51958 17-Ketosteroids, Urine   
 5  52068 24 Hr                    
 6  51066 24 hr Calcium            
 7  51067 24 hr Creatinine         
 8  51068 24 hr Protein            
 9  50853 25-OH Vitamin D          
10  51533 3t                       
# … with 1,620 more rows
…
# Filter labevents
labevents_tble <- labevents_tble %>%
  filter(itemid %in% lab_itemid_to_keep) %>% 
  print(width = Inf)

# A tibble: 13,926,853 × 4
   subject_id itemid charttime           valuenum
        <dbl>  <dbl> <dttm>                 <dbl>
 1   10003700  50882 2162-11-15 17:00:00     27  
 2   10003700  50902 2162-11-15 17:00:00    103  
 3   10003700  50912 2162-11-15 17:00:00      1  
 4   10003700  50931 2162-11-15 17:00:00     93  
 5   10003700  50971 2162-11-15 17:00:00      4.1
 6   10003700  50983 2162-11-15 17:00:00    141  
 7   10003700  51221 2162-11-15 17:00:00     40  
 8   10003700  51301 2162-11-15 17:00:00      6.7
 9   10003700  51221 2165-04-24 03:40:00     41  
10   10003700  51301 2165-04-24 03:40:00      5.8
# … with 13,926,843 more rows
…
# Process column names for readability, using dictionary provided
labevents_tble <- labevents_tble %>%
  rename_at(
    vars(as.character(labitems_dict$itemid)),
    ~str_to_lower(
      str_replace_all(labitems_dict$label, " ", "_")
    )
  ) %>% 
  print(width = Inf)

# A tibble: 51,618 × 9
   subject_id bicarbonate chloride creatinine glucose potassium sodium
        <dbl>       <dbl>    <dbl>      <dbl>   <dbl>     <dbl>  <dbl>
 1   10000032          21      102        0.5     115       4.7    132
 2   10001217          23      104        0.4     113       3.6    138
 3   10001725          24      106        0.8     146       3.9    140
 4   10001884          33       96        1.1     148       4      136
 5   10002013          23      109        1.1      98       4      140
 6   10002155          25      106        0.9      95       4.5    139
 7   10002223          26      102        0.8      88       3.9    138
 8   10002348          23      107        0.8     127       4.8    142
 9   10002428          20       98        0.8      99       3.9    129
10   10002430          22      105        2.2     128       3.8    144
   hematocrit white_blood_cells
        <dbl>             <dbl>
 1       NA                NA  
 2       33.6              19  
 3       39.1              17  
 4       36                18.4
 5       28.6              18.2
 6       37.9               5.5
 7       32.5              10.1
 8       39.3               4.3
 9       28.7              22.4
10       36.6              10.3
# … with 51,608 more rows
…
chartevents_tble <- read_csv(chartevents_filename,
                             col_select = chartevents_cols_to_keep) %>% 
  print(width = Inf)

Warning: Using an external vector in selections was deprecated in tidyselect 1.1.0.
ℹ Please use `all_of()` or `any_of()` instead.
  # Was:
  data %>% select(chartevents_cols_to_keep)

  # Now:
  data %>% select(all_of(chartevents_cols_to_keep))

See <https://tidyselect.r-lib.org/reference/faq-external-vector.html>.

# A tibble: 23,679,058 × 4
   subject_id charttime           itemid valuenum
        <dbl> <dttm>               <dbl>    <dbl>
 1   10003700 2165-04-24 05:28:00 220179    152  
 2   10003700 2165-04-24 05:28:00 220181    110  
 3   10003700 2165-04-24 05:30:00 220045     65  
 4   10003700 2165-04-24 05:30:00 220210     14  
 5   10003700 2165-04-24 05:38:00 223761     97.6
 6   10003700 2165-04-24 06:00:00 220045     56  
 7   10003700 2165-04-24 06:00:00 220179    126  
 8   10003700 2165-04-24 06:00:00 220181     88  
 9   10003700 2165-04-24 06:00:00 220210     14  
10   10003700 2165-04-24 06:09:00 220045     55  
# … with 23,679,048 more rows

chartevents_dict <- read_csv(chartevents_itemid_dict_filename) %>% 
  select(itemid, label) %>% 
  print(width = Inf)

# A tibble: 3,861 × 2
   itemid label                               
    <dbl> <chr>                               
 1 220003 ICU Admission date                  
 2 220045 Heart Rate                          
 3 220046 Heart rate Alarm - High             
 4 220047 Heart Rate Alarm - Low              
 5 220048 Heart Rhythm                        
 6 220050 Arterial Blood Pressure systolic    
 7 220051 Arterial Blood Pressure diastolic   
 8 220052 Arterial Blood Pressure mean        
 9 220056 Arterial Blood Pressure Alarm - Low 
10 220058 Arterial Blood Pressure Alarm - High
# … with 3,851 more rows
…
  # Pivot wider to make data tidy
  select(-charttime, -intime, -outtime) %>% 
  pivot_wider(names_from = itemid, values_from = valuenum) %>% 
  ungroup() %>% 
  
  # Rename columns using dict
  rename_at(
    vars(as.character(chartevents_dict$itemid)),
    ~str_to_lower(
      str_replace_all(chartevents_dict$label, " ", "_")
    )
  ) %>% 
  print(width = Inf)

# A tibble: 53,136 × 6
   subject_id heart_rate non_invasive_blood_pressure_systolic
        <dbl>      <dbl>                                <dbl>
 1   10000032         91                                   84
 2   10000980         77                                  150
 3   10001217         86                                  151
 4   10001725         55                                   73
 5   10001884         38                                  180
 6   10002013         80                                  104
 7   10002155         68                                  126
 8   10002223        100                                  123
 9   10002348         72                                  129
10   10002428        124                                   87
   non_invasive_blood_pressure_mean respiratory_rate temperature_fahrenheit
                              <dbl>            <dbl>                  <dbl>
 1                               56               24                   98.7
 2                               92               23                   98  
 3                              104               18                   98.5
 4                               59               19                   97.7
 5                               46               10                   98.1
 6                               77               14                   97.2
 7                               78               18                   95.9
 8                               80               29                   98.6
 9                               85               14                   97.9
10                               53               25                  103. 
# … with 53,126 more rows
…
